Pub,Ventes,Diff,Anc,Style
10.256,330,43,16,Other
985.685,120,28,6,Electro
1445.563,360,35,2,Pop
1188.193,270,33,6,Other
574.513,220,44,19,Pop
568.954,170,19,29,Pop
471.814,70,20,18,Rock
537.352,210,22,7,RnB
514.068,200,21,15,Rock
174.093,300,40,25,Other
1720.806,290,32,14,Rock
611.479,70,20,6,Electro
251.192,150,24,20,Other
97.972,190,38,22,Pop
406.814,240,24,21,RnB
265.398,100,25,22,Rock
1323.287,250,35,11,RnB
196.65,210,36,17,Pop
1326.598,280,27,22,Other
1380.689,230,33,9,RnB
792.345,210,33,1,Pop
957.167,230,28,10,RnB
1789.659,320,30,30,Pop
656.137,210,34,15,Pop
613.697,230,49,9,Pop
313.362,250,40,26,Electro
336.51,60,20,18,Pop
1544.899,330,42,22,Rock
68.954,150,35,16,Electro
785.692,150,8,21,RnB
125.628,180,49,1,Electro
377.925,80,19,9,Rap
217.994,180,42,27,Rap
759.862,130,6,28,Other
1163.444,320,36,13,Pop
842.957,280,32,12,Rock
125.179,200,28,19,Electro
236.598,130,25,4,Rap
669.811,190,34,29,Other
612.234,150,21,11,Rap
922.019,230,34,4,Rock
50,310,63,13,Rap
2000,340,31,7,RnB
1054.027,240,25,20,Pop
385.045,180,42,21,RnB
1507.972,220,37,18,RnB
102.568,40,25,27,Pop
204.568,190,26,14,Other
1170.918,290,39,1,Electro
689.547,340,46,18,Electro
784.22,250,36,25,Rock
405.913,190,12,22,Pop
179.778,120,2,23,Other
607.258,230,29,15,Other
1542.329,190,33,8,RnB
1112.47,210,28,6,Pop
856.985,170,10,11,RnB
836.331,310,38,2,Rock
236.908,90,19,3,RnB
1077.855,140,13,7,Rock
579.321,300,30,6,Pop
1500,340,38,24,RnB
731.364,170,22,21,RnB
25.689,100,23,1,Pop
391.749,200,22,28,Electro
233.999,80,20,28,Rock
275.7,100,18,7,RnB
56.895,70,37,29,Other
255.117,50,16,2,Rock
566.501,240,32,2,RnB
102.568,160,26,2,Rap
250.568,290,53,27,Pop
68.594,499,28,8,Rap
642.786,210,32,22,Electro
1500,300,24,29,Rock
102.563,230,37,23,Rock
756.984,280,30,7,Rap
51.229,160,19,22,Rap
644.151,200,47,3,Other
15.313,110,22,4,Pop
243.237,110,10,3,Rock
256.894,70,1,30,Other
22.464,100,1,23,Electro
45.689,190,39,6,RnB
724.938,70,8,8,Pop
1126.461,360,38,22,Other
1985.119,360,35,28,Electro
1837.516,300,40,6,Rap
135.986,120,22,7,RnB
237.703,150,27,17,Electro
976.641,220,31,15,Rap
1452.689,280,19,8,RnB
1600,300,24,24,RnB
268.598,140,1,25,Pop
900.889,290,38,28,Other
982.063,180,26,25,Rock
201.356,140,11,29,RnB
746.024,210,34,8,Other
1132.877,250,55,18,Rock
1000,250,5,30,Other
75.896,120,34,21,Electro
1351.254,290,37,13,RnB
202.705,60,13,22,Rap
365.985,140,23,6,Rap
305.268,290,54,17,Electro
263.268,160,18,9,Rap
513.694,100,2,2,Electro
152.609,160,11,18,RnB
35.987,150,30,20,Rap
102.568,140,22,7,Electro
215.368,230,36,20,Rock
426.784,230,37,10,Rap
507.772,30,9,5,Rap
233.291,80,2,25,RnB
1035.433,190,12,5,Pop
102.642,90,5,25,RnB
526.142,120,14,12,RnB
624.538,150,20,1,Electro
912.349,230,57,27,Rap
215.994,150,19,21,Pop
561.963,210,35,18,Electro
474.76,180,22,22,RnB
231.523,140,16,26,Rock
678.596,360,53,26,Other
70.922,10,4,1,Rock
1567.548,240,29,14,Rock
263.598,270,43,9,Other
1423.568,290,26,28,Rock
715.678,220,28,20,Other
777.237,230,37,19,Rap
509.43,220,32,4,Pop
964.11,240,34,28,Electro
583.627,260,30,1,Rock
923.373,170,15,23,Electro
344.392,130,23,21,Rap
1095.578,270,31,21,RnB
100.025,140,21,17,Electro
30.425,60,28,27,Other
1080.342,210,18,26,Rock
799.899,210,28,18,Pop
1071.752,240,37,19,Electro
893.355,210,26,2,Electro
283.161,200,30,15,Electro
917.017,140,10,24,Rap
234.568,90,21,24,Rap
456.897,120,18,19,Rap
206.973,100,14,15,RnB
1294.099,360,38,12,Rap
826.859,180,36,2,Other
564.158,150,32,29,Rap
192.607,110,9,16,Rap
10.652,90,39,15,Electro
45.689,160,24,18,Rap
42.568,230,45,9,Rock
20.456,40,13,4,Rock
635.192,60,17,13,Electro
1002.273,230,32,27,Electro
1177.047,230,23,3,Pop
507.638,120,0,17,Rock
215.689,150,35,1,Other
526.48,120,26,10,Rap
26.895,60,19,2,Pop
883.877,280,26,27,Other
9.104,120,53,26,Pop
103.568,230,29,11,Electro
169.583,230,28,7,RnB
429.504,40,17,19,Rap
223.639,140,26,11,Rap
145.585,360,42,19,Rap
985.968,210,17,4,Rock
500.922,260,36,12,Other
226.652,250,45,21,Other
1051.168,200,20,8,Other
68.093,150,15,12,Other
1547.159,250,28,22,Electro
393.774,100,27,15,Electro
804.282,260,17,22,Rock
801.577,210,32,6,RnB
450.562,290,46,30,Other
26.598,220,47,10,RnB
179.061,70,19,16,Rap
345.687,110,22,14,Rock
295.84,250,55,14,Pop
2271.86,320,31,12,Other
1134.575,300,39,3,RnB
601.434,180,21,30,Other
45.298,180,36,15,Rap
759.518,200,21,22,Pop
832.869,320,44,8,Electro
56.894,140,27,7,Rock
709.399,100,16,19,RnB
56.895,120,33,21,Pop
767.134,230,33,23,Other
503.172,150,21,29,Pop
700.929,250,35,20,Pop
910.851,190,26,18,Pop
888.569,240,14,1,Other
800.615,250,34,9,Rock
1500,230,11,19,Rock
785.694,110,20,19,Electro
